{
  "id": "MAP_SOAP_CITY",
  "name": "SoapCity",
  "layout": "LAYOUT_SOAP_CITY",
  "music": "MUS_DP_CANALAVE_NIGHT",
  "region_map_section": "MAPSEC_PETALBURG_CITY",
  "requires_flash": false,
  "weather": "WEATHER_NONE",
  "map_type": "MAP_TYPE_CITY",
  "allow_cycling": true,
  "allow_escaping": false,
  "allow_running": true,
  "show_map_name": true,
  "battle_scene": "MAP_BATTLE_SCENE_NORMAL",
  "connections": [
    {
      "map": "MAP_ROUTE2",
      "offset": 0,
      "direction": "up"
    },
    {
      "map": "MAP_ROUTE3",
      "offset": 0,
      "direction": "down"
    }
  ],
  "object_events": [

  ],
  "warp_events": [

  ],
  "coord_events": [

  ],
  "bg_events": [

  ]
}
