{
  "id": "MAP_ORANGE_TOWN",
  "name": "OrangeTown",
  "layout": "LAYOUT_ORANGE_TOWN",
  "music": "MUS_BW_NACRENE",
  "region_map_section": "MAPSEC_VERDANTURF_TOWN",
  "requires_flash": false,
  "weather": "WEATHER_NONE",
  "map_type": "MAP_TYPE_TOWN",
  "allow_cycling": true,
  "allow_escaping": false,
  "allow_running": true,
  "show_map_name": true,
  "battle_scene": "MAP_BATTLE_SCENE_NORMAL",
  "connections": [
    {
      "map": "MAP_ROUTE12",
      "offset": 0,
      "direction": "down"
    },
    {
      "map": "MAP_ROUTE13",
      "offset": 0,
      "direction": "left"
    }
  ],
  "object_events": [

  ],
  "warp_events": [

  ],
  "coord_events": [

  ],
  "bg_events": [

  ]
}
