{
  "id": "MAP_ROUTE12",
  "name": "Route12",
  "layout": "LAYOUT_ROUTE12",
  "music": "MUS_HG_ROUTE42",
  "region_map_section": "MAPSEC_ROUTE_12",
  "requires_flash": false,
  "weather": "WEATHER_NONE",
  "map_type": "MAP_TYPE_ROUTE",
  "allow_cycling": true,
  "allow_escaping": false,
  "allow_running": true,
  "show_map_name": true,
  "battle_scene": "MAP_BATTLE_SCENE_NORMAL",
  "connections": [
    {
      "map": "MAP_THE_HOLE",
      "offset": 0,
      "direction": "down"
    },
    {
      "map": "MAP_ORANGE_TOWN",
      "offset": 0,
      "direction": "up"
    }
  ],
  "object_events": [

  ],
  "warp_events": [

  ],
  "coord_events": [

  ],
  "bg_events": [

  ]
}
