{
  "id": "MAP_PLANT_CITY",
  "name": "PlantCity",
  "layout": "LAYOUT_PLANT_CITY",
  "music": "MUS_BW_NIMBASA",
  "region_map_section": "MAPSEC_FALLARBOR_TOWN",
  "requires_flash": false,
  "weather": "WEATHER_NONE",
  "map_type": "MAP_TYPE_CITY",
  "allow_cycling": true,
  "allow_escaping": false,
  "allow_running": true,
  "show_map_name": true,
  "battle_scene": "MAP_BATTLE_SCENE_NORMAL",
  "connections": [
    {
      "map": "MAP_ROUTE10",
      "offset": 0,
      "direction": "left"
    },
    {
      "map": "MAP_ROUTE18",
      "offset": 0,
      "direction": "up"
    },
    {
      "map": "MAP_ROUTE11",
      "offset": 0,
      "direction": "right"
    }
  ],
  "object_events": [

  ],
  "warp_events": [

  ],
  "coord_events": [

  ],
  "bg_events": [

  ]
}
