{
  "id": "MAP_WATER_CITY",
  "name": "WaterCity",
  "layout": "LAYOUT_WATER_CITY",
  "music": "MUS_PL_B_HALL",
  "region_map_section": "MAPSEC_MAUVILLE_CITY",
  "requires_flash": false,
  "weather": "WEATHER_NONE",
  "map_type": "MAP_TYPE_CITY",
  "allow_cycling": true,
  "allow_escaping": false,
  "allow_running": true,
  "show_map_name": true,
  "battle_scene": "MAP_BATTLE_SCENE_NORMAL",
  "connections": [
    {
      "map": "MAP_ROUTE7",
      "offset": 0,
      "direction": "down"
    },
    {
      "map": "MAP_ROUTE8",
      "offset": 0,
      "direction": "up"
    },
    {
      "map": "MAP_ROUTE19",
      "offset": 0,
      "direction": "right"
    }
  ],
  "object_events": [

  ],
  "warp_events": [

  ],
  "coord_events": [

  ],
  "bg_events": [

  ]
}
