{
  "id": "MAP_GUIDE_TOWN_PLAYERS_HOUSE_1F",
  "name": "GuideTown_PlayersHouse_1F",
  "layout": "LAYOUT_GUIDE_TOWN_PLAYERS_HOUSE_1F",
  "music": "MUS_DP_TWINLEAF_DAY",
  "region_map_section": "MAPSEC_LITTLEROOT_TOWN",
  "requires_flash": false,
  "weather": "WEATHER_NONE",
  "map_type": "MAP_TYPE_INDOOR",
  "allow_cycling": false,
  "allow_escaping": false,
  "allow_running": false,
  "show_map_name": false,
  "battle_scene": "MAP_BATTLE_SCENE_NORMAL",
  "connections": 0,
  "object_events": [

  ],
  "warp_events": [
    {
      "x": 12,
      "y": 9,
      "elevation": 0,
      "dest_map": "MAP_GUIDE_TOWN",
      "dest_warp_id": "0"
    },
    {
      "x": 11,
      "y": 9,
      "elevation": 0,
      "dest_map": "MAP_GUIDE_TOWN",
      "dest_warp_id": "0"
    },
    {
      "x": 12,
      "y": 1,
      "elevation": 0,
      "dest_map": "MAP_LITTLEROOT_TOWN_BRENDANS_HOUSE_2F",
      "dest_warp_id": "0"
    }
  ],
  "coord_events": [

  ],
  "bg_events": [

  ]
}
