{
  "id": "MAP_GUIDE_TOWN",
  "name": "GuideTown",
  "layout": "LAYOUT_GUIDE_TOWN",
  "music": "MUS_DP_TWINLEAF_DAY",
  "region_map_section": "MAPSEC_LITTLEROOT_TOWN",
  "requires_flash": false,
  "weather": "WEATHER_SUNNY",
  "map_type": "MAP_TYPE_TOWN",
  "allow_cycling": true,
  "allow_escaping": false,
  "allow_running": true,
  "show_map_name": true,
  "battle_scene": "MAP_BATTLE_SCENE_NORMAL",
  "connections": [
    {
      "map": "MAP_ROUTE1",
      "offset": 0,
      "direction": "down"
    },
    {
      "map": "MAP_ROUTE21",
      "offset": 4,
      "direction": "left"
    },
    {
      "map": "MAP_ROUTE15",
      "offset": 0,
      "direction": "right"
    },
    {
      "map": "MAP_ROUTE16",
      "offset": 0,
      "direction": "up"
    },
    {
      "map": "MAP_ROUTE15",
      "offset": 0,
      "direction": "right"
    }
  ],
  "object_events": [
    {
      "graphics_id": "OBJ_EVENT_GFX_CUTTABLE_TREE",
      "x": 24,
      "y": 11,
      "elevation": 0,
      "movement_type": "MOVEMENT_TYPE_LOOK_AROUND",
      "movement_range_x": 0,
      "movement_range_y": 0,
      "trainer_type": "TRAINER_TYPE_NONE",
      "trainer_sight_or_berry_tree_id": "0",
      "script": "EventScript_CutTree",
      "flag": "FLAG_HIDE_GUIDE_TOWN_TREE"
    }
  ],
  "warp_events": [
    {
      "x": 9,
      "y": 10,
      "elevation": 0,
      "dest_map": "MAP_GUIDE_TOWN_PLAYERS_HOUSE_1F",
      "dest_warp_id": "1"
    },
    {
      "x": 16,
      "y": 10,
      "elevation": 0,
      "dest_map": "MAP_GUIDE_TOWN_TWAINS_HOUSE",
      "dest_warp_id": "1"
    },
    {
      "x": 16,
      "y": 19,
      "elevation": 0,
      "dest_map": "MAP_GUIDE_TOWN_SAPHRONETHS_LAB",
      "dest_warp_id": "1"
    }
  ],
  "coord_events": [

  ],
  "bg_events": [
    {
      "type": "sign",
      "x": 11,
      "y": 10,
      "elevation": 0,
      "player_facing_dir": "BG_EVENT_PLAYER_FACING_ANY",
      "script": "GuideTown_EventScript_PlayersHouseSign"
    },
    {
      "type": "sign",
      "x": 14,
      "y": 10,
      "elevation": 0,
      "player_facing_dir": "BG_EVENT_PLAYER_FACING_ANY",
      "script": "GuideTown_EventScript_TwainsHouseSign"
    },
    {
      "type": "sign",
      "x": 11,
      "y": 19,
      "elevation": 0,
      "player_facing_dir": "BG_EVENT_PLAYER_FACING_ANY",
      "script": "GuideTown_EventScript_SaphronethsLabSign"
    }
  ]
}
