{
  "id": "MAP_GUIDE_TOWN_SAPHRONETHS_LAB",
  "name": "GuideTown_SaphronethsLab",
  "layout": "LAYOUT_GUIDE_TOWN_SAPHRONETHS_LAB",
  "music": "MUS_HG_ELM_LAB",
  "region_map_section": "MAPSEC_LITTLEROOT_TOWN",
  "requires_flash": false,
  "weather": "WEATHER_NONE",
  "map_type": "MAP_TYPE_INDOOR",
  "allow_cycling": false,
  "allow_escaping": false,
  "allow_running": false,
  "show_map_name": false,
  "battle_scene": "MAP_BATTLE_SCENE_NORMAL",
  "connections": 0,
  "object_events": [

  ],
  "warp_events": [
    {
      "x": 6,
      "y": 10,
      "elevation": 0,
      "dest_map": "MAP_GUIDE_TOWN",
      "dest_warp_id": "2"
    },
    {
      "x": 7,
      "y": 10,
      "elevation": 0,
      "dest_map": "MAP_GUIDE_TOWN",
      "dest_warp_id": "2"
    }
  ],
  "coord_events": [

  ],
  "bg_events": [

  ]
}
